2020-11-04 18:47:38 [DEBUG] com.ocpsoft.pretty.faces.config.reload.PrettyConfigReloader - No development mode detected. Configuration reloading gets disabled.
2020-11-04 18:49:41 [WARN ] tn.esprit.spring.controller.ControllerEmployeImpl -  errrrrrrrrrrrrrrrrrrrrrrreeeeeeeeeeeeeeeeeur 
2020-11-04 18:49:41 [DEBUG] com.ocpsoft.pretty.faces2.application.PrettyNavigationHandler - Navigation requested: fromAction [#{employeController.doLogin()}], outcome [null]
2020-11-04 18:49:41 [DEBUG] com.ocpsoft.pretty.faces2.application.PrettyNavigationHandler - Not a PrettyFaces navigation string - passing control to default nav-handler
2020-11-04 18:50:12 [INFO ] tn.esprit.spring.controller.ControllerEmployeImpl -  welcome 
2020-11-04 18:50:12 [DEBUG] com.ocpsoft.pretty.faces2.application.PrettyNavigationHandler - Navigation requested: fromAction [#{employeController.doLogin()}], outcome [/pages/admin/welcome.xhtml?faces-redirect=true]
2020-11-04 18:50:12 [DEBUG] com.ocpsoft.pretty.faces2.application.PrettyNavigationHandler - Not a PrettyFaces navigation string - passing control to default nav-handler
