2020-11-04 18:52:23 [DEBUG] com.ocpsoft.pretty.faces.config.reload.PrettyConfigReloader - Detector DefaultDevelopmentModeDetector returned: null
2020-11-04 18:52:23 [DEBUG] com.ocpsoft.pretty.faces.config.reload.PrettyConfigReloader - Detector JSF2DevelopmentModeDetector returned: false
2020-11-04 18:52:23 [DEBUG] com.ocpsoft.pretty.faces.config.reload.PrettyConfigReloader - No development mode detected. Configuration reloading gets disabled.
2020-11-04 18:53:04 [INFO ] tn.esprit.spring.controller.ControllerEmployeImpl -  welcome 
2020-11-04 18:53:04 [DEBUG] com.ocpsoft.pretty.faces2.application.PrettyNavigationHandler - Navigation requested: fromAction [#{employeController.doLogin()}], outcome [/pages/admin/welcome.xhtml?faces-redirect=true]
2020-11-04 18:53:04 [DEBUG] com.ocpsoft.pretty.faces2.application.PrettyNavigationHandler - Not a PrettyFaces navigation string - passing control to default nav-handler
2020-11-04 18:56:19 [DEBUG] com.ocpsoft.pretty.faces.config.reload.PrettyConfigReloader - Detector DefaultDevelopmentModeDetector returned: null
