2020-11-06 14:47:09 [DEBUG] tn.esprit.spring.controller.ControllerEmployeImpl - logiiiiiinnnn
2020-11-06 14:47:09 [INFO ] tn.esprit.spring.controller.ControllerEmployeImpl -  welcome 
2020-11-06 14:47:09 [DEBUG] com.ocpsoft.pretty.faces2.application.PrettyNavigationHandler - Navigation requested: fromAction [#{employeController.doLogin()}], outcome [/pages/admin/welcome.xhtml?faces-redirect=true]
2020-11-06 14:47:09 [DEBUG] com.ocpsoft.pretty.faces2.application.PrettyNavigationHandler - Not a PrettyFaces navigation string - passing control to default nav-handler
2020-11-06 14:47:58 [INFO ] tn.esprit.spring.controller.ControllerEmployeImpl -  bye now 
2020-11-06 14:47:58 [DEBUG] com.ocpsoft.pretty.faces2.application.PrettyNavigationHandler - Navigation requested: fromAction [#{employeController.doLogout()}], outcome [/login.xhtml?faces-redirect=true]
2020-11-06 14:47:58 [DEBUG] com.ocpsoft.pretty.faces2.application.PrettyNavigationHandler - Not a PrettyFaces navigation string - passing control to default nav-handler
