2020-11-05 14:33:51 [INFO ] tn.esprit.spring.controller.ControllerEmployeImpl -  welcome 
2020-11-05 14:33:51 [DEBUG] com.ocpsoft.pretty.faces2.application.PrettyNavigationHandler - Navigation requested: fromAction [#{employeController.doLogin()}], outcome [/pages/admin/welcome.xhtml?faces-redirect=true]
2020-11-05 14:33:51 [DEBUG] com.ocpsoft.pretty.faces2.application.PrettyNavigationHandler - Not a PrettyFaces navigation string - passing control to default nav-handler
2020-11-06 11:38:11 [DEBUG] tn.esprit.spring.services.TimesheetServiceImpl - add mission.
2020-11-06 11:38:11 [INFO ] tn.esprit.spring.services.TimesheetServiceImpl - mission added 
2020-11-06 11:38:12 [DEBUG] tn.esprit.spring.services.TimesheetServiceImpl - add mission.
2020-11-06 11:38:12 [INFO ] tn.esprit.spring.services.TimesheetServiceImpl - mission added 
2020-11-06 11:40:47 [DEBUG] tn.esprit.spring.services.TimesheetServiceImpl - add mission.
2020-11-06 11:40:47 [INFO ] tn.esprit.spring.services.TimesheetServiceImpl - mission added 
