2020-11-04 19:03:19 [DEBUG] com.ocpsoft.pretty.faces.config.reload.PrettyConfigReloader - No development mode detected. Configuration reloading gets disabled.
2020-11-04 19:03:29 [INFO ] tn.esprit.spring.controller.ControllerEmployeImpl -  welcome 
2020-11-04 19:03:29 [DEBUG] com.ocpsoft.pretty.faces2.application.PrettyNavigationHandler - Navigation requested: fromAction [#{employeController.doLogin()}], outcome [/pages/admin/welcome.xhtml?faces-redirect=true]
2020-11-04 19:03:29 [DEBUG] com.ocpsoft.pretty.faces2.application.PrettyNavigationHandler - Not a PrettyFaces navigation string - passing control to default nav-handler
2020-11-04 19:03:30 [INFO ] tn.esprit.spring.controller.ControllerEmployeImpl -  bye now 
2020-11-04 19:03:30 [DEBUG] com.ocpsoft.pretty.faces2.application.PrettyNavigationHandler - Navigation requested: fromAction [#{employeController.doLogout()}], outcome [/login.xhtml?faces-redirect=true]
2020-11-04 19:03:30 [DEBUG] com.ocpsoft.pretty.faces2.application.PrettyNavigationHandler - Not a PrettyFaces navigation string - passing control to default nav-handler
