2020-11-06 14:38:49 [DEBUG] com.ocpsoft.pretty.faces.config.reload.PrettyConfigReloader - Detector JSF2DevelopmentModeDetector returned: false
2020-11-06 14:38:49 [DEBUG] com.ocpsoft.pretty.faces.config.reload.PrettyConfigReloader - No development mode detected. Configuration reloading gets disabled.
2020-11-06 14:41:34 [WARN ] tn.esprit.spring.controller.ControllerEmployeImpl -  Login failed  
2020-11-06 14:41:34 [DEBUG] com.ocpsoft.pretty.faces2.application.PrettyNavigationHandler - Navigation requested: fromAction [#{employeController.doLogin()}], outcome [null]
2020-11-06 14:41:34 [DEBUG] com.ocpsoft.pretty.faces2.application.PrettyNavigationHandler - Not a PrettyFaces navigation string - passing control to default nav-handler
2020-11-06 14:44:08 [DEBUG] com.ocpsoft.pretty.faces.config.reload.PrettyConfigReloader - Detector DefaultDevelopmentModeDetector returned: null
2020-11-06 14:44:08 [DEBUG] com.ocpsoft.pretty.faces.config.reload.PrettyConfigReloader - Detector JSF2DevelopmentModeDetector returned: false
