2020-11-06 11:40:47 [DEBUG] tn.esprit.spring.services.TimesheetServiceImpl - l'employe doit etre chef de departement pour valider une feuille de temps !
2020-11-06 12:10:38 [DEBUG] tn.esprit.spring.services.TimesheetServiceImpl - add mission.
2020-11-06 12:10:38 [INFO ] tn.esprit.spring.services.TimesheetServiceImpl - mission added 
2020-11-06 12:10:38 [ERROR] tn.esprit.spring.services.TimesheetServiceImpl - l'employe doit etre chef de departement pour valider une feuille de temps !
2020-11-06 12:15:32 [DEBUG] tn.esprit.spring.services.TimesheetServiceImpl - add mission.
2020-11-06 12:15:32 [INFO ] tn.esprit.spring.services.TimesheetServiceImpl - mission added 
2020-11-06 12:15:32 [ERROR] tn.esprit.spring.services.TimesheetServiceImpl - l'employe doit etre chef de departement pour valider une feuille de temps !
2020-11-06 14:37:36 [DEBUG] tn.esprit.spring.services.TimesheetServiceImpl - add mission.
2020-11-06 14:37:37 [INFO ] tn.esprit.spring.services.TimesheetServiceImpl - mission added 
2020-11-06 14:38:49 [DEBUG] com.ocpsoft.pretty.faces.config.reload.PrettyConfigReloader - Detector DefaultDevelopmentModeDetector returned: null
